Computing Infrastructure and Curriculum Design for Introductory Data Science Part 1 - Curriculum
…
<br>

<img src="images/draw-owl.png" width="50%" style="display: block; margin: auto;" />

---

### Take a look at the data

```r
un_votes_joined
```

```
## # A tibble: 621 x 5
##    country  year issue                                votes percent_yes
##    <chr>   <dbl> <chr>                                <int>       <dbl>
##  1 Turkey   1946 Colonialism                             15       0.8  
##  2 Turkey   1946 Economic development                     7       0.571
##  3 Turkey   1947 Colonialism                              9       0.222
##  4 Turkey   1947 Palestinian conflict                     6       0    
##  5 Turkey   1948 Arms control and disarmament             8       0    
##  6 Turkey   1948 Colonialism                             13       0.462
##  7 Turkey   1948 Human rights                            11       0.182
##  8 Turkey   1948 Nuclear weapons and nuclear material     7       0    
##  9 Turkey   1948 Palestinian conflict                    11       0.273
## 10 Turkey   1949 Colonialism                             35       0.543
## # … with 611 more rows
```
…
---

## What ecosystem?

<img src="images/ecosystem.png" width="100%" style="display: block; margin: auto;" />

---

.question[
Estimate the difference between the average evaluation score of male and female faculty.
]

```
## # A tibble: 463 x 5
##    score rank         ethnicity    gender bty_avg
##    <dbl> <chr>        <chr>        <chr>    <dbl>
##  1   4.7 tenure track minority     female    5   
##  2   4.1 tenure track minority     female    5   
##  3   3.9 tenure track minority     female    5   
##  4   4.8 tenure track minority     female    5   
##  5   4.6 tenured      not minority male      3   
##  6   4.3 tenured      not minority male      3   
##  7   2.8 tenured      not minority male      3   
##  8   4.1 tenured      not minority male      3.33
##  9   3.4 tenured      not minority male      3.33
## 10   4.5 tenured      not minority female    3.17
## # … with 453 more rows
```
…
.footnote[
[infer.netlify.com](https://infer.netlify.com)
]

---

### Start with data

```r
*evals
```

```
## # A tibble: 463 x 21
##    score rank  ethnicity gender language   age cls_perc_eval cls_did_eval
##    <dbl> <chr> <chr>     <chr>  <chr>    <dbl>         <dbl>        <dbl>
##  1   4.7 tenu… minority  female english     36          55.8           24
##  2   4.1 tenu… minority  female english     36          68.8           86
##  3   3.9 tenu… minority  female english     36          60.8           76
##  4   4.8 tenu… minority  female english     36          62.6           77
##  5   4.6 tenu… not mino… male   english     59          85             17
##  6   4.3 tenu… not mino… male   english     59          87.5           35
##  7   2.8 tenu… not mino… male   english     59          88.6           39
##  8   4.1 tenu… not mino… male   english     51         100             55
##  9   3.4 tenu… not mino… male   english     51          56.9          111
## 10   4.5 tenu… not mino… female english     40          87.0           40
## # … with 453 more rows, and 13 more variables: cls_students <dbl>,
## #   cls_level <chr>, cls_profs <chr>, cls_credits <chr>,
## #   bty_f1lower <dbl>, bty_f1upper <dbl>, bty_f2upper <dbl>,
## #   bty_m1lower <dbl>, bty_m1upper <dbl>, bty_m2upper <dbl>,
## #   bty_avg <dbl>, pic_outfit <chr>, pic_color <chr>
```

---

### Specify the model

```r
evals %>%
* specify(score ~ gender)
```

```
## Response: score (numeric)
## Explanatory: gender (factor)
## # A tibble: 463 x 2
##    score gender
##    <dbl> <fct> 
##  1   4.7 female
##  2   4.1 female
##  3   3.9 female
##  4   4.8 female
##  5   4.6 male  
##  6   4.3 male  
##  7   2.8 male  
##  8   4.1 male  
##  9   3.4 male  
## 10   4.5 female
## # … with 453 more rows
```

---

### Generate bootstrap samples

```r
evals %>%
  specify(score ~ gender) %>%
* generate(reps = 1000, type = "bootstrap")
```

```
## Response: score (numeric)
## Explanatory: gender (factor)
## # A tibble: 463,000 x 3
## # Groups:   replicate [1,000]
##    replicate score gender
##        <int> <dbl> <fct> 
##  1         1   4.9 male  
##  2         1   4.9 female
##  3         1   4.1 male  
##  4         1   4.7 female
##  5         1   4.9 female
##  6         1   2.8 male  
##  7         1   3.7 female
##  8         1   4.8 male  
##  9         1   3.8 male  
## 10         1   3.1 male  
## # … with 462,990 more rows
```

---

### Calculate sample statistics

```r
evals %>%
  specify(score ~ gender) %>%
  generate(reps = 1000, type = "bootstrap") %>%
* calculate(stat = "diff in means", order = c("male", "female"))
```

```
## # A tibble: 1,000 x 2
##    replicate   stat
##        <int>  <dbl>
##  1         1 0.129 
##  2         2 0.163 
##  3         3 0.154 
##  4         4 0.0874
##  5         5 0.0876
##  6         6 0.0498
##  7         7 0.121 
##  8         8 0.167 
##  9         9 0.104 
## 10        10 0.163 
## # … with 990 more rows
```
…
